[
    {
        "id": 2683,
        "name": "Samir Foch",
        "twitch": "sirfoch"
    },
    {
        "id": 4215,
        "name": "George Boothby",
        "twitch": "ukog"
    },
    {
        "id": 13457,
        "name": "Dennis Schps",
        "twitch": "haunted_1"
    },
    {
        "id": 2620,
        "name": "Geert Fischer",
        "twitch": "geert78"
    },
    {
        "id": 1032,
        "name": "Sascha Wasner",
        "twitch": "krodonas"
    },
    {
        "id": 5913,
        "name": "Teemu Karppinen",
        "twitch": "teemukarppinen"
    },
    {
        "id": 1704,
        "name": "Emir al-Batee'",
        "twitch": "kylooooren"
    },
    {
        "id": 2339,
        "name": "Ben McConell",
        "twitch": "rwaggy"
    },
    {
        "id": 15629,
        "name": "Valentin Barrier",
        "twitch": "iamvalentinbrr"
    },
    {
        "id": 2758,
        "name": "Sandijs Leicis",
        "twitch": "shftctrl"
    },
    {
        "id": 11888,
        "name": "Max Florenz",
        "twitch": "MaxFlorenz"
    },
    {
        "id": 4657,
        "name": "Marcel Noe",
        "twitch": "erazerexe"
    },
    {
        "id": 7021,
        "name": "Luke Addison",
        "twitch": "lukeaddison96"
    },
    {
        "id": 1668,
        "name": "Dieter Bletten",
        "twitch": "bentastiic"
    },
    {
        "id": 2486,
        "name": "Sascha Engel",
        "twitch": "agent_engel"
    }
]