Wet Chance,Dry Chance,Mixed Chance,Avg Temp,Temp,Clouds,Rain,Date and Time,Track,id
0.0,1.0,0.0,21.283,20,0.07,0.02,2024-10-07 02:00:00,Nürburgring Nordschleife 24h,157215
0.003,0.96,0.037,23.837,20,0.28,0.03,2024-10-07 18:00:00,Nürburgring Nordschleife 24h,157216
0.001,0.99,0.009,22.068,25,0.16,0.1,2024-10-07 20:00:00,Nürburgring Nordschleife 24h,157217
0.073,0.68,0.247,26.514,26,0.4,0.08,2024-10-08 02:00:00,Nürburgring Nordschleife 24h,157218
0.002,0.989,0.009,22.398,18,0.19,0.05,2024-10-08 18:00:00,Nürburgring Nordschleife 24h,157219
0.0,1.0,0.0,19.949,15,0.01,0.01,2024-10-08 20:00:00,Nürburgring Nordschleife 24h,157220
0.094,0.604,0.302,28.312,26,0.4,0.1,2024-10-09 02:00:00,Nürburgring Nordschleife 24h,157221
0.0,1.0,0.0,19.31,15,0.1,0.06,2024-10-09 18:00:00,Nürburgring Nordschleife 24h,157222
0.0,0.999,0.001,25.253,24,0.04,0.06,2024-10-09 20:00:00,Nürburgring Nordschleife 24h,157223
0.0,1.0,0.0,21.243,20,0.07,0.05,2024-10-10 02:00:00,Nürburgring Nordschleife 24h,157224
0.019,0.851,0.13,22.861,20,0.37,0.03,2024-10-10 18:00:00,Nürburgring Nordschleife 24h,157225
0.077,0.684,0.239,14.267,17,0.4,0.07,2024-10-10 20:00:00,Nürburgring Nordschleife 24h,157226
0.0,0.999,0.001,29.142,28,0.07,0.1,2024-10-11 02:00:00,Nürburgring Nordschleife 24h,157227
0.0,1.0,0.0,20.501,16,0.04,0.04,2024-10-11 18:00:00,Nürburgring Nordschleife 24h,157228
0.087,0.656,0.257,17.18,20,0.38,0.1,2024-10-11 20:00:00,Nürburgring Nordschleife 24h,157229
0.0,1.0,0.0,15.991,19,0.08,0.01,2024-10-12 02:00:00,Nürburgring Nordschleife 24h,157230
0.0,1.0,0.0,29.236,25,0.13,0.04,2024-10-12 18:00:00,Nürburgring Nordschleife 24h,157231
0.008,0.786,0.206,18.129,16,0.38,0.03,2024-10-12 20:00:00,Nürburgring Nordschleife 24h,157232
0.0,0.999,0.001,31.475,28,0.11,0.04,2024-10-13 02:00:00,Nürburgring Nordschleife 24h,157233
0.0,0.999,0.001,24.8,20,0,0.09,2024-10-13 18:00:00,Nürburgring Nordschleife 24h,157234
0.006,0.918,0.076,23.729,20,0.31,0.04,2024-10-13 20:00:00,Nürburgring Nordschleife 24h,157235
0.002,0.978,0.02,16.136,19,0.27,0.01,2024-10-14 02:00:00,Nürburgring Nordschleife 24h,157236
0.0,0.999,0.001,21.248,17,0.08,0.1,2024-10-14 18:00:00,Nürburgring Nordschleife 24h,157237
0.0,0.986,0.014,29.309,27,0.24,0.03,2024-10-14 20:00:00,Nürburgring Nordschleife 24h,157238
0.002,0.892,0.106,23.166,21,0.33,0.04,2024-10-15 02:00:00,Nürburgring Nordschleife 24h,157239
0.022,0.848,0.13,15.24,18,0.38,0.02,2024-10-15 18:00:00,Nürburgring Nordschleife 24h,157240
0.031,0.792,0.177,20.812,18,0.4,0.03,2024-10-15 20:00:00,Nürburgring Nordschleife 24h,157241
0.0,0.999,0.001,20.682,16,0.11,0.04,2024-10-16 02:00:00,Nürburgring Nordschleife 24h,157242
0.0,1.0,0.0,20.631,18,0.14,0.01,2024-10-16 18:00:00,Nürburgring Nordschleife 24h,157243
0.0,0.994,0.006,22.15,18,0.21,0.01,2024-10-16 20:00:00,Nürburgring Nordschleife 24h,157244
0.0,1.0,0.0,27.263,26,0.08,0.01,2024-10-17 02:00:00,Nürburgring Nordschleife 24h,157245
0.0,1.0,0.0,26.774,24,0.02,0.03,2024-10-17 18:00:00,Nürburgring Nordschleife 24h,157246
0.0,1.0,0.0,24.815,22,0,0.03,2024-10-17 20:00:00,Nürburgring Nordschleife 24h,157247
0.034,0.782,0.184,21.744,21,0.38,0.06,2024-10-18 02:00:00,Nürburgring Nordschleife 24h,157248
0.002,0.983,0.015,21.112,20,0.17,0.07,2024-10-18 18:00:00,Nürburgring Nordschleife 24h,157249
0.0,1.0,0.0,20.703,18,0.03,0.08,2024-10-18 20:00:00,Nürburgring Nordschleife 24h,157250
0.057,0.631,0.312,21.594,19,0.4,0.08,2024-10-19 02:00:00,Nürburgring Nordschleife 24h,157251
0.0,0.999,0.001,32.476,28,0.09,0.1,2024-10-19 18:00:00,Nürburgring Nordschleife 24h,157252
0.049,0.558,0.393,18.27,15,0.4,0.1,2024-10-19 20:00:00,Nürburgring Nordschleife 24h,157253
0.0,0.997,0.003,25.545,21,0.11,0.08,2024-10-20 02:00:00,Nürburgring Nordschleife 24h,157254
0.021,0.792,0.187,25.721,22,0.32,0.1,2024-10-20 18:00:00,Nürburgring Nordschleife 24h,157255
0.0,0.999,0.001,20.629,17,0.1,0.01,2024-10-20 20:00:00,Nürburgring Nordschleife 24h,157256
0.001,0.964,0.035,19.311,17,0.26,0.06,2024-10-21 02:00:00,Nürburgring Nordschleife 24h,157257
0.001,0.991,0.008,28.396,24,0.2,0.02,2024-10-21 18:00:00,Nürburgring Nordschleife 24h,157258
0.0,1.0,0.0,26.231,25,0.08,0.04,2024-10-21 20:00:00,Nürburgring Nordschleife 24h,157259
0.008,0.86,0.132,31.449,28,0.3,0.09,2024-10-22 02:00:00,Nürburgring Nordschleife 24h,157260
0.0,0.959,0.041,19.326,17,0.28,0.03,2024-10-22 18:00:00,Nürburgring Nordschleife 24h,157261
0.0,0.998,0.002,26.232,25,0.11,0.02,2024-10-22 20:00:00,Nürburgring Nordschleife 24h,157262
0.0,1.0,0.0,19.58,16,0.09,0.04,2024-10-23 02:00:00,Nürburgring Nordschleife 24h,157263
0.0,0.998,0.002,22.534,19,0.09,0.05,2024-10-23 18:00:00,Nürburgring Nordschleife 24h,157264
0.0,0.994,0.006,21.1,20,0.15,0.09,2024-10-23 20:00:00,Nürburgring Nordschleife 24h,157265
0.022,0.692,0.286,28.775,27,0.35,0.1,2024-10-24 02:00:00,Nürburgring Nordschleife 24h,157266
0.0,1.0,0.0,31.472,28,0.09,0.06,2024-10-24 18:00:00,Nürburgring Nordschleife 24h,157267
0.0,1.0,0.0,29.283,28,0.05,0.01,2024-10-24 20:00:00,Nürburgring Nordschleife 24h,157268
0.0,0.999,0.001,22.41,18,0.08,0.04,2024-10-25 02:00:00,Nürburgring Nordschleife 24h,157269
0.0,0.997,0.003,32.107,28,0.15,0.05,2024-10-25 18:00:00,Nürburgring Nordschleife 24h,157270
0.007,0.926,0.067,27.967,24,0.3,0.05,2024-10-25 20:00:00,Nürburgring Nordschleife 24h,157271
0.0,0.99,0.01,25.287,22,0.16,0.07,2024-10-26 02:00:00,Nürburgring Nordschleife 24h,157272
0.0,1.0,0.0,30.394,26,0,0.1,2024-10-26 18:00:00,Nürburgring Nordschleife 24h,157273
0.001,0.996,0.003,29.107,28,0.16,0.03,2024-10-26 20:00:00,Nürburgring Nordschleife 24h,157274
0.001,0.96,0.039,29.26,27,0.26,0.03,2024-10-27 03:00:00,Nürburgring Nordschleife 24h,157275
0.002,0.989,0.009,21.136,20,0.22,0.01,2024-10-27 19:00:00,Nürburgring Nordschleife 24h,157276
0.001,0.975,0.024,26.951,23,0.24,0.02,2024-10-27 21:00:00,Nürburgring Nordschleife 24h,157277
0.01,0.874,0.116,22.641,19,0.31,0.07,2024-10-28 03:00:00,Nürburgring Nordschleife 24h,157278
0.0,0.993,0.007,19.524,17,0.17,0.04,2024-10-28 19:00:00,Nürburgring Nordschleife 24h,157279
0.031,0.676,0.293,28.506,25,0.38,0.07,2024-10-28 21:00:00,Nürburgring Nordschleife 24h,157280
0.012,0.898,0.09,21.885,21,0.28,0.09,2024-10-29 03:00:00,Nürburgring Nordschleife 24h,157281
0.011,0.889,0.1,22.673,19,0.35,0.02,2024-10-29 19:00:00,Nürburgring Nordschleife 24h,157282
0.0,0.997,0.003,30.501,26,0.11,0.07,2024-10-29 21:00:00,Nürburgring Nordschleife 24h,157283
0.0,0.999,0.001,24.575,22,0.07,0.09,2024-10-30 03:00:00,Nürburgring Nordschleife 24h,157284
0.0,1.0,0.0,22.578,19,0.09,0.03,2024-10-30 19:00:00,Nürburgring Nordschleife 24h,157285
0.008,0.848,0.144,26.024,24,0.33,0.06,2024-10-30 21:00:00,Nürburgring Nordschleife 24h,157286
0.0,1.0,0.0,22.98,26,0.11,0.05,2024-10-31 03:00:00,Nürburgring Nordschleife 24h,157287
0.013,0.835,0.152,22.821,22,0.37,0.04,2024-10-31 19:00:00,Nürburgring Nordschleife 24h,157288
0.013,0.888,0.099,26.884,24,0.35,0.02,2024-10-31 21:00:00,Nürburgring Nordschleife 24h,157289
0.0,0.996,0.004,24.234,20,0.13,0.06,2024-11-01 03:00:00,Nürburgring Nordschleife 24h,157290
0.021,0.831,0.148,13.282,16,0.31,0.1,2024-11-01 19:00:00,Nürburgring Nordschleife 24h,157291
0.001,0.972,0.027,25.215,21,0.19,0.1,2024-11-01 21:00:00,Nürburgring Nordschleife 24h,157292
0.0,0.999,0.001,32.313,28,0.07,0.06,2024-11-02 03:00:00,Nürburgring Nordschleife 24h,157293
0.006,0.907,0.087,27.618,24,0.3,0.06,2024-11-02 19:00:00,Nürburgring Nordschleife 24h,157294
0.005,0.903,0.092,30.867,27,0.34,0.02,2024-11-02 21:00:00,Nürburgring Nordschleife 24h,157295
0.005,0.949,0.046,26.014,23,0.29,0.04,2024-11-03 03:00:00,Nürburgring Nordschleife 24h,157296
0.002,0.986,0.012,23.283,20,0.16,0.09,2024-11-03 19:00:00,Nürburgring Nordschleife 24h,157297
0.0,0.969,0.031,19.336,17,0.23,0.07,2024-11-03 21:00:00,Nürburgring Nordschleife 24h,157298
0.0,1.0,0.0,24.953,20,0,0.02,2024-11-04 03:00:00,Nürburgring Nordschleife 24h,157299
0.0,0.996,0.004,18.511,16,0.17,0.05,2024-11-04 19:00:00,Nürburgring Nordschleife 24h,157300
0.004,0.982,0.014,12.204,15,0.23,0.07,2024-11-04 21:00:00,Nürburgring Nordschleife 24h,157301
0.059,0.691,0.25,18.753,18,0.37,0.1,2024-11-05 03:00:00,Nürburgring Nordschleife 24h,157302
0.0,0.991,0.009,28.402,26,0.16,0.07,2024-11-05 19:00:00,Nürburgring Nordschleife 24h,157303
0.0,0.999,0.001,23.507,19,0.15,0.05,2024-11-05 21:00:00,Nürburgring Nordschleife 24h,157304
0.0,0.996,0.004,31.44,27,0.16,0.04,2024-11-06 03:00:00,Nürburgring Nordschleife 24h,157305
0.0,1.0,0.0,25.767,21,0.01,0.1,2024-11-06 19:00:00,Nürburgring Nordschleife 24h,157306
0.033,0.775,0.192,28.607,26,0.34,0.09,2024-11-06 21:00:00,Nürburgring Nordschleife 24h,157307
0.002,0.966,0.032,22.161,19,0.2,0.1,2024-11-07 03:00:00,Nürburgring Nordschleife 24h,157308
0.005,0.963,0.032,22.971,22,0.29,0.03,2024-11-07 19:00:00,Nürburgring Nordschleife 24h,157309
0.003,0.976,0.021,26.238,22,0.25,0.03,2024-11-07 21:00:00,Nürburgring Nordschleife 24h,157310
0.019,0.87,0.111,26.773,26,0.37,0.02,2024-11-08 03:00:00,Nürburgring Nordschleife 24h,157311
0.003,0.965,0.032,23.149,20,0.29,0.01,2024-11-08 19:00:00,Nürburgring Nordschleife 24h,157312
0.0,1.0,0.0,29.487,25,0.03,0.04,2024-11-08 21:00:00,Nürburgring Nordschleife 24h,157313
0.0,0.991,0.009,22.058,25,0.15,0.1,2024-11-09 03:00:00,Nürburgring Nordschleife 24h,157314
0.0,1.0,0.0,27.39,23,0.05,0.06,2024-11-09 19:00:00,Nürburgring Nordschleife 24h,157315
0.0,1.0,0.0,25.621,22,0,0.1,2024-11-09 21:00:00,Nürburgring Nordschleife 24h,157316
0.001,0.983,0.016,22.069,25,0.24,0.04,2024-11-10 03:00:00,Nürburgring Nordschleife 24h,157317
0.0,1.0,0.0,16.013,19,0.12,0.03,2024-11-10 19:00:00,Nürburgring Nordschleife 24h,157318
0.0,0.998,0.002,21.178,20,0.14,0.05,2024-11-10 21:00:00,Nürburgring Nordschleife 24h,157319
0.0,0.998,0.002,24.257,20,0.09,0.08,2024-11-11 03:00:00,Nürburgring Nordschleife 24h,157320
0.004,0.929,0.067,28.847,28,0.35,0.01,2024-11-11 19:00:00,Nürburgring Nordschleife 24h,157321
0.011,0.902,0.087,21.922,19,0.33,0.05,2024-11-11 21:00:00,Nürburgring Nordschleife 24h,157322
0.011,0.898,0.091,20.037,16,0.26,0.1,2024-11-12 03:00:00,Nürburgring Nordschleife 24h,157323
0.005,0.882,0.113,30.515,27,0.31,0.07,2024-11-12 19:00:00,Nürburgring Nordschleife 24h,157324
0.0,1.0,0.0,26.301,25,0.01,0.05,2024-11-12 21:00:00,Nürburgring Nordschleife 24h,157325
0.0,0.993,0.007,20.099,19,0.17,0.08,2024-11-13 03:00:00,Nürburgring Nordschleife 24h,157326
0.0,0.99,0.01,27.36,25,0.21,0.04,2024-11-13 19:00:00,Nürburgring Nordschleife 24h,157327
0.002,0.983,0.015,29.162,26,0.18,0.09,2024-11-13 21:00:00,Nürburgring Nordschleife 24h,157328
0.0,1.0,0.0,21.906,17,0,0.05,2024-11-14 03:00:00,Nürburgring Nordschleife 24h,157329
0.0,0.999,0.001,22.026,25,0.19,0.02,2024-11-14 19:00:00,Nürburgring Nordschleife 24h,157330
0.004,0.935,0.061,23.788,20,0.27,0.06,2024-11-14 21:00:00,Nürburgring Nordschleife 24h,157331
0.008,0.797,0.195,26.956,25,0.39,0.02,2024-11-15 03:00:00,Nürburgring Nordschleife 24h,157332
0.001,0.974,0.025,20.346,18,0.2,0.09,2024-11-15 19:00:00,Nürburgring Nordschleife 24h,157333
0.0,1.0,0.0,19.478,15,0.03,0.06,2024-11-15 21:00:00,Nürburgring Nordschleife 24h,157334
0.002,0.987,0.011,31.24,27,0.17,0.09,2024-11-16 03:00:00,Nürburgring Nordschleife 24h,157335
0.002,0.98,0.018,26.169,23,0.23,0.05,2024-11-16 19:00:00,Nürburgring Nordschleife 24h,157336
0.0,0.985,0.015,15.118,18,0.16,0.09,2024-11-16 21:00:00,Nürburgring Nordschleife 24h,157337
0.0,1.0,0.0,28.48,24,0.06,0.01,2024-11-17 03:00:00,Nürburgring Nordschleife 24h,157338
0.009,0.825,0.166,27.464,24,0.33,0.07,2024-11-17 19:00:00,Nürburgring Nordschleife 24h,157339
0.064,0.736,0.2,17.192,20,0.38,0.08,2024-11-17 21:00:00,Nürburgring Nordschleife 24h,157340
0.002,0.998,0.0,14.08,17,0.17,0.03,2024-11-18 03:00:00,Nürburgring Nordschleife 24h,157341
0.01,0.923,0.067,29.828,27,0.28,0.09,2024-11-18 19:00:00,Nürburgring Nordschleife 24h,157342
0.0,1.0,0.0,18.984,22,0.1,0.01,2024-11-18 21:00:00,Nürburgring Nordschleife 24h,157343
0.0,1.0,0.0,30.708,28,0.06,0.01,2024-11-19 03:00:00,Nürburgring Nordschleife 24h,157344
0.0,0.991,0.009,27.071,26,0.22,0.01,2024-11-19 19:00:00,Nürburgring Nordschleife 24h,157345
0.008,0.96,0.032,18.139,21,0.3,0.03,2024-11-19 21:00:00,Nürburgring Nordschleife 24h,157346
0.0,1.0,0.0,18.625,15,0.11,0.01,2024-11-20 03:00:00,Nürburgring Nordschleife 24h,157347
0.0,1.0,0.0,23.685,19,0.11,0.03,2024-11-20 19:00:00,Nürburgring Nordschleife 24h,157348
0.003,0.96,0.037,25.093,22,0.29,0.02,2024-11-20 21:00:00,Nürburgring Nordschleife 24h,157349
0.003,0.952,0.045,22.84,19,0.31,0.01,2024-11-21 03:00:00,Nürburgring Nordschleife 24h,157350
0.0,0.998,0.002,26.522,24,0.14,0.04,2024-11-21 19:00:00,Nürburgring Nordschleife 24h,157351
0.001,0.925,0.074,20.23,18,0.24,0.1,2024-11-21 21:00:00,Nürburgring Nordschleife 24h,157352
0.0,1.0,0.0,24.927,20,0.01,0.02,2024-11-22 03:00:00,Nürburgring Nordschleife 24h,157353
0.0,0.999,0.001,15.984,19,0.09,0.05,2024-11-22 19:00:00,Nürburgring Nordschleife 24h,157354
0.016,0.917,0.067,18.171,21,0.3,0.06,2024-11-22 21:00:00,Nürburgring Nordschleife 24h,157355
0.006,0.905,0.089,19.221,17,0.29,0.07,2024-11-23 03:00:00,Nürburgring Nordschleife 24h,157356
0.003,0.952,0.045,25.251,23,0.25,0.06,2024-11-23 19:00:00,Nürburgring Nordschleife 24h,157357
0.0,0.964,0.036,31.771,28,0.3,0.01,2024-11-23 21:00:00,Nürburgring Nordschleife 24h,157358
0.0,1.0,0.0,31.527,28,0.1,0.03,2024-11-24 03:00:00,Nürburgring Nordschleife 24h,157359
0.001,0.915,0.084,24.964,21,0.28,0.08,2024-11-24 19:00:00,Nürburgring Nordschleife 24h,157360
0.013,0.833,0.154,29.45,26,0.34,0.06,2024-11-24 21:00:00,Nürburgring Nordschleife 24h,157361
0.0,0.996,0.004,18.534,16,0.18,0.03,2024-11-25 03:00:00,Nürburgring Nordschleife 24h,157362
0.0,0.993,0.007,17.542,15,0.11,0.1,2024-11-25 19:00:00,Nürburgring Nordschleife 24h,157363
0.001,0.976,0.023,20.407,18,0.23,0.04,2024-11-25 21:00:00,Nürburgring Nordschleife 24h,157364
0.0,1.0,0.0,23.48,19,0.06,0.03,2024-11-26 03:00:00,Nürburgring Nordschleife 24h,157365
0.001,0.993,0.006,19.427,15,0.19,0.05,2024-11-26 19:00:00,Nürburgring Nordschleife 24h,157366
0.009,0.913,0.078,29.886,26,0.29,0.07,2024-11-26 21:00:00,Nürburgring Nordschleife 24h,157367
0.0,0.994,0.006,22.022,25,0.11,0.1,2024-11-27 03:00:00,Nürburgring Nordschleife 24h,157368
0.003,0.961,0.036,21.245,17,0.22,0.07,2024-11-27 19:00:00,Nürburgring Nordschleife 24h,157369
0.0,0.991,0.009,24.3,21,0.15,0.08,2024-11-27 21:00:00,Nürburgring Nordschleife 24h,157370
0.0,0.999,0.001,26.395,22,0.09,0.03,2024-11-28 03:00:00,Nürburgring Nordschleife 24h,157371
0.0,1.0,0.0,22.581,20,0.09,0.07,2024-11-28 19:00:00,Nürburgring Nordschleife 24h,157372
0.005,0.917,0.078,30.599,27,0.28,0.08,2024-11-28 21:00:00,Nürburgring Nordschleife 24h,157373
0.059,0.586,0.355,31.218,28,0.4,0.09,2024-11-29 03:00:00,Nürburgring Nordschleife 24h,157374
0.0,1.0,0.0,12.03,15,0.08,0.05,2024-11-29 19:00:00,Nürburgring Nordschleife 24h,157375
0.0,1.0,0.0,29.322,28,0.03,0.01,2024-11-29 21:00:00,Nürburgring Nordschleife 24h,157376
0.0,1.0,0.0,21.872,17,0.04,0.02,2024-11-30 03:00:00,Nürburgring Nordschleife 24h,157377
0.0,1.0,0.0,30.288,26,0.14,0.01,2024-11-30 19:00:00,Nürburgring Nordschleife 24h,157378
0.0,1.0,0.0,24.756,20,0.03,0.07,2024-11-30 21:00:00,Nürburgring Nordschleife 24h,157379
0.002,0.902,0.096,20.189,18,0.36,0.01,2024-12-01 03:00:00,Nürburgring Nordschleife 24h,157380
0.005,0.814,0.181,18.129,16,0.33,0.08,2024-12-01 19:00:00,Nürburgring Nordschleife 24h,157381
0.015,0.815,0.17,19.904,16,0.38,0.03,2024-12-01 21:00:00,Nürburgring Nordschleife 24h,157382
0.0,0.997,0.003,18.526,16,0.17,0.05,2024-12-02 03:00:00,Nürburgring Nordschleife 24h,157383
0.0,0.989,0.011,18.342,15,0.15,0.1,2024-12-02 19:00:00,Nürburgring Nordschleife 24h,157384
0.013,0.861,0.126,19.93,16,0.34,0.05,2024-12-02 21:00:00,Nürburgring Nordschleife 24h,157385
0.002,0.97,0.028,25.116,22,0.28,0.02,2024-12-03 03:00:00,Nürburgring Nordschleife 24h,157386
0.009,0.884,0.107,31.505,28,0.3,0.07,2024-12-03 19:00:00,Nürburgring Nordschleife 24h,157387
0.0,1.0,0.0,23.735,21,0.07,0.01,2024-12-03 21:00:00,Nürburgring Nordschleife 24h,157388
0.011,0.921,0.068,21.019,18,0.3,0.06,2024-12-04 03:00:00,Nürburgring Nordschleife 24h,157389
0.004,0.956,0.04,22.098,19,0.31,0.01,2024-12-04 19:00:00,Nürburgring Nordschleife 24h,157390
0.085,0.64,0.275,14.25,17,0.39,0.1,2024-12-04 21:00:00,Nürburgring Nordschleife 24h,157391
0.054,0.724,0.222,16.214,19,0.35,0.1,2024-12-05 03:00:00,Nürburgring Nordschleife 24h,157392
0.0,0.999,0.001,27.53,23,0.17,0.01,2024-12-05 19:00:00,Nürburgring Nordschleife 24h,157393
0.001,0.978,0.021,29.1,26,0.24,0.05,2024-12-05 21:00:00,Nürburgring Nordschleife 24h,157394
0.001,0.992,0.007,22.013,25,0.15,0.06,2024-12-06 03:00:00,Nürburgring Nordschleife 24h,157395
0.005,0.903,0.092,19.219,17,0.31,0.05,2024-12-06 19:00:00,Nürburgring Nordschleife 24h,157396
0.0,0.999,0.001,16.046,19,0.17,0.01,2024-12-06 21:00:00,Nürburgring Nordschleife 24h,157397
0.0,0.993,0.007,21.053,24,0.16,0.08,2024-12-07 03:00:00,Nürburgring Nordschleife 24h,157398
0.0,0.997,0.003,26.369,23,0.16,0.04,2024-12-07 19:00:00,Nürburgring Nordschleife 24h,157399
0.0,1.0,0.0,18.572,15,0.11,0.03,2024-12-07 21:00:00,Nürburgring Nordschleife 24h,157400
0.005,0.959,0.036,21.978,21,0.24,0.09,2024-12-08 03:00:00,Nürburgring Nordschleife 24h,157401
0.0,1.0,0.0,25.393,21,0.03,0.08,2024-12-08 19:00:00,Nürburgring Nordschleife 24h,157402
0.003,0.971,0.026,14.17,17,0.23,0.07,2024-12-08 21:00:00,Nürburgring Nordschleife 24h,157403
0.011,0.926,0.063,18.983,18,0.28,0.08,2024-12-09 03:00:00,Nürburgring Nordschleife 24h,157404
0.038,0.81,0.152,12.305,15,0.36,0.07,2024-12-09 19:00:00,Nürburgring Nordschleife 24h,157405
0.0,1.0,0.0,19.938,23,0.01,0.04,2024-12-09 21:00:00,Nürburgring Nordschleife 24h,157406
0.006,0.95,0.044,15.163,18,0.31,0.01,2024-12-10 03:00:00,Nürburgring Nordschleife 24h,157407
0.0,1.0,0.0,20.507,16,0.02,0.06,2024-12-10 19:00:00,Nürburgring Nordschleife 24h,157408
0.005,0.964,0.031,19.139,16,0.29,0.03,2024-12-10 21:00:00,Nürburgring Nordschleife 24h,157409
0.014,0.828,0.158,25.021,23,0.32,0.08,2024-12-11 03:00:00,Nürburgring Nordschleife 24h,157410
0.04,0.782,0.178,24.062,27,0.37,0.06,2024-12-11 19:00:00,Nürburgring Nordschleife 24h,157411
0.046,0.751,0.203,18.772,16,0.4,0.05,2024-12-11 21:00:00,Nürburgring Nordschleife 24h,157412
0.0,0.999,0.001,24.657,22,0.04,0.08,2024-12-12 03:00:00,Nürburgring Nordschleife 24h,157413
0.005,0.914,0.081,21.206,19,0.26,0.1,2024-12-12 19:00:00,Nürburgring Nordschleife 24h,157414
0.0,1.0,0.0,27.381,23,0.07,0.05,2024-12-12 21:00:00,Nürburgring Nordschleife 24h,157415
0.023,0.849,0.128,20.833,20,0.35,0.05,2024-12-13 03:00:00,Nürburgring Nordschleife 24h,157416
0.0,0.999,0.001,25.651,23,0.1,0.02,2024-12-13 19:00:00,Nürburgring Nordschleife 24h,157417
0.0,1.0,0.0,25.69,23,0.06,0.03,2024-12-13 21:00:00,Nürburgring Nordschleife 24h,157418
0.009,0.885,0.106,29.843,26,0.33,0.04,2024-12-14 03:00:00,Nürburgring Nordschleife 24h,157419
0.016,0.838,0.146,22.58,19,0.31,0.09,2024-12-14 19:00:00,Nürburgring Nordschleife 24h,157420
0.005,0.976,0.019,16.162,19,0.29,0.01,2024-12-14 21:00:00,Nürburgring Nordschleife 24h,157421
0.016,0.919,0.065,14.223,17,0.31,0.05,2024-12-15 03:00:00,Nürburgring Nordschleife 24h,157422
0.0,0.997,0.003,13.083,16,0.15,0.04,2024-12-15 19:00:00,Nürburgring Nordschleife 24h,157423
0.001,0.99,0.009,26.024,22,0.21,0.03,2024-12-15 21:00:00,Nürburgring Nordschleife 24h,157424
0.004,0.978,0.018,12.201,15,0.27,0.02,2024-12-16 03:00:00,Nürburgring Nordschleife 24h,157425
0.009,0.935,0.056,24.898,24,0.32,0.02,2024-12-16 19:00:00,Nürburgring Nordschleife 24h,157426
0.0,0.995,0.005,22.096,18,0.19,0.05,2024-12-16 21:00:00,Nürburgring Nordschleife 24h,157427
0.001,0.978,0.021,22.076,25,0.26,0.02,2024-12-17 03:00:00,Nürburgring Nordschleife 24h,157428
0.0,1.0,0.0,28.667,25,0.04,0.03,2024-12-17 19:00:00,Nürburgring Nordschleife 24h,157429
0.008,0.897,0.095,25.118,23,0.33,0.04,2024-12-17 21:00:00,Nürburgring Nordschleife 24h,157430
0.0,1.0,0.0,23.928,27,0.05,0.03,2024-12-18 03:00:00,Nürburgring Nordschleife 24h,157431
0.001,0.998,0.001,27.081,26,0.2,0.02,2024-12-18 19:00:00,Nürburgring Nordschleife 24h,157432
0.017,0.786,0.197,30.632,27,0.38,0.04,2024-12-18 21:00:00,Nürburgring Nordschleife 24h,157433
0.01,0.83,0.16,25.997,24,0.34,0.06,2024-12-19 03:00:00,Nürburgring Nordschleife 24h,157434
0.0,0.999,0.001,20.231,19,0.05,0.1,2024-12-19 19:00:00,Nürburgring Nordschleife 24h,157435
0.012,0.772,0.216,30.321,27,0.38,0.04,2024-12-19 21:00:00,Nürburgring Nordschleife 24h,157436
0.022,0.86,0.118,26.791,24,0.31,0.09,2024-12-20 03:00:00,Nürburgring Nordschleife 24h,157437
0.0,0.998,0.002,26.483,24,0.16,0.05,2024-12-20 19:00:00,Nürburgring Nordschleife 24h,157438
0.0,0.999,0.001,19.612,17,0.14,0.02,2024-12-20 21:00:00,Nürburgring Nordschleife 24h,157439
0.0,0.999,0.001,24.156,23,0.09,0.1,2024-12-21 03:00:00,Nürburgring Nordschleife 24h,157440
0.0,1.0,0.0,20.778,18,0.01,0.04,2024-12-21 19:00:00,Nürburgring Nordschleife 24h,157441
0.001,0.983,0.016,27.912,24,0.21,0.06,2024-12-21 21:00:00,Nürburgring Nordschleife 24h,157442
0.0,0.989,0.011,20.298,17,0.17,0.08,2024-12-22 03:00:00,Nürburgring Nordschleife 24h,157443
0.0,1.0,0.0,24.318,23,0,0.07,2024-12-22 19:00:00,Nürburgring Nordschleife 24h,157444
0.005,0.96,0.035,23.073,26,0.24,0.09,2024-12-22 21:00:00,Nürburgring Nordschleife 24h,157445
0.0,1.0,0.0,28.227,27,0.12,0.01,2024-12-23 03:00:00,Nürburgring Nordschleife 24h,157446
0.006,0.968,0.026,21.092,24,0.28,0.04,2024-12-23 19:00:00,Nürburgring Nordschleife 24h,157447
0.007,0.896,0.097,29.84,26,0.3,0.07,2024-12-23 21:00:00,Nürburgring Nordschleife 24h,157448
0.0,1.0,0.0,17.696,15,0.05,0.08,2024-12-24 03:00:00,Nürburgring Nordschleife 24h,157449
0.001,0.997,0.002,22.559,18,0.15,0.03,2024-12-24 19:00:00,Nürburgring Nordschleife 24h,157450
0.003,0.94,0.057,29.142,27,0.26,0.08,2024-12-24 21:00:00,Nürburgring Nordschleife 24h,157451
0.0,1.0,0.0,25.463,21,0.02,0.07,2024-12-25 03:00:00,Nürburgring Nordschleife 24h,157452
0.012,0.908,0.08,21.911,21,0.34,0.02,2024-12-25 19:00:00,Nürburgring Nordschleife 24h,157453
0.0,1.0,0.0,22.178,21,0.16,0.02,2024-12-25 21:00:00,Nürburgring Nordschleife 24h,157454
0.0,0.999,0.001,15.999,19,0.09,0.03,2024-12-26 03:00:00,Nürburgring Nordschleife 24h,157455
0.0,1.0,0.0,29.631,26,0.02,0.06,2024-12-26 19:00:00,Nürburgring Nordschleife 24h,157456
0.023,0.816,0.161,24.744,22,0.36,0.07,2024-12-26 21:00:00,Nürburgring Nordschleife 24h,157457
0.01,0.902,0.088,25.883,23,0.31,0.07,2024-12-27 03:00:00,Nürburgring Nordschleife 24h,157458
0.026,0.873,0.101,17.903,17,0.3,0.1,2024-12-27 19:00:00,Nürburgring Nordschleife 24h,157459
0.003,0.942,0.055,22.263,20,0.29,0.03,2024-12-27 21:00:00,Nürburgring Nordschleife 24h,157460
0.0,1.0,0.0,23.711,20,0.03,0.03,2024-12-28 03:00:00,Nürburgring Nordschleife 24h,157461
0.002,0.973,0.025,16.12,15,0.23,0.06,2024-12-28 19:00:00,Nürburgring Nordschleife 24h,157462
0.0,0.981,0.019,27.833,24,0.23,0.06,2024-12-28 21:00:00,Nürburgring Nordschleife 24h,157463
0.011,0.897,0.092,28.87,25,0.28,0.09,2024-12-29 03:00:00,Nürburgring Nordschleife 24h,157464
0.0,0.996,0.004,32.031,28,0.2,0.03,2024-12-29 19:00:00,Nürburgring Nordschleife 24h,157465
0.003,0.983,0.014,19.078,22,0.17,0.09,2024-12-29 21:00:00,Nürburgring Nordschleife 24h,157466
